{
  "name": "@buckeye/painless-node-crypt",
  "namespace": false,
  "sources": [
    {
      "dir": "src",
      "subdirs": true
    },
    {
      "dir": "__tests__",
      "subdirs": true,
      "type": "dev"
    }
  ],
  "refmt": 3,
  "package-specs": {
    "module": "commonjs",
    "in-source": true
  },
  "suffix": ".bs.js",
  "bs-dependencies": ["bs-abstract", "relude", "@buckeye/bs-node-crypto"],
  "bs-dev-dependencies": ["@buckeye/bs-ava"]
}
